%YAML 1.1
%TAG !u! tag:unity3d.com,2011:
--- !u!74 &7400000
AnimationClip:
  m_ObjectHideFlags: 0
  m_PrefabParentObject: {fileID: 0}
  m_PrefabInternal: {fileID: 0}
  m_Name: idle
  serializedVersion: 6
  m_Legacy: 0
  m_Compressed: 0
  m_UseHighQualityCurve: 1
  m_RotationCurves: []
  m_CompressedRotationCurves: []
  m_EulerCurves: []
  m_PositionCurves: []
  m_ScaleCurves: []
  m_FloatCurves: []
  m_PPtrCurves:
  - curve:
    - time: 0
      value: {fileID: 21300000, guid: 739384a8c8eec624298b48a9df87542d, type: 3}
    - time: 0.05
      value: {fileID: 21300000, guid: b2002844da31eb443bc87b5b1f38fc5c, type: 3}
    - time: 0.1
      value: {fileID: 21300000, guid: 2a2649da7adffcb47a0ee77a97cb5c4c, type: 3}
    - time: 0.15
      value: {fileID: 21300000, guid: 3945204331bc66842ab03efb28c528ee, type: 3}
    - time: 0.2
      value: {fileID: 21300000, guid: 930f7769589d42e4d804e0d1244a78b2, type: 3}
    - time: 0.25
      value: {fileID: 21300000, guid: c8b8e3fad915a244d81edf313fdd3be9, type: 3}
    attribute: m_Sprite
    path: 
    classID: 212
    script: {fileID: 0}
  m_SampleRate: 20
  m_WrapMode: 0
  m_Bounds:
    m_Center: {x: 0, y: 0, z: 0}
    m_Extent: {x: 0, y: 0, z: 0}
  m_ClipBindingConstant:
    genericBindings:
    - path: 0
      attribute: 0
      script: {fileID: 0}
      classID: 212
      customType: 23
      isPPtrCurve: 1
    pptrCurveMapping:
    - {fileID: 21300000, guid: 739384a8c8eec624298b48a9df87542d, type: 3}
    - {fileID: 21300000, guid: b2002844da31eb443bc87b5b1f38fc5c, type: 3}
    - {fileID: 21300000, guid: 2a2649da7adffcb47a0ee77a97cb5c4c, type: 3}
    - {fileID: 21300000, guid: 3945204331bc66842ab03efb28c528ee, type: 3}
    - {fileID: 21300000, guid: 930f7769589d42e4d804e0d1244a78b2, type: 3}
    - {fileID: 21300000, guid: c8b8e3fad915a244d81edf313fdd3be9, type: 3}
  m_AnimationClipSettings:
    serializedVersion: 2
    m_AdditiveReferencePoseClip: {fileID: 0}
    m_AdditiveReferencePoseTime: 0
    m_StartTime: 0
    m_StopTime: 0.3
    m_OrientationOffsetY: 0
    m_Level: 0
    m_CycleOffset: 0
    m_HasAdditiveReferencePose: 0
    m_LoopTime: 1
    m_LoopBlend: 0
    m_LoopBlendOrientation: 0
    m_LoopBlendPositionY: 0
    m_LoopBlendPositionXZ: 0
    m_KeepOriginalOrientation: 0
    m_KeepOriginalPositionY: 1
    m_KeepOriginalPositionXZ: 0
    m_HeightFromFeet: 0
    m_Mirror: 0
  m_EditorCurves: []
  m_EulerEditorCurves: []
  m_HasGenericRootTransform: 0
  m_HasMotionFloatCurves: 0
  m_GenerateMotionCurves: 0
  m_Events: []
